1	F	2007-04-05 00:00:00	2017-05-01 00:00:00
2	M	2007-04-05 00:00:00	2017-05-01 00:00:00
3	M	2007-04-05 00:00:00	2017-11-17 00:00:00
4	M	2007-04-05 00:00:00	2017-11-17 00:00:00
5	F	2007-04-05 00:00:00	2017-11-17 00:00:00
6	M	2007-04-05 00:00:00	2017-11-17 00:00:00
7	M	2007-04-05 00:00:00	2017-11-20 00:00:00
8	F	2007-04-05 00:00:00	2017-11-20 00:00:00
9	M	2007-04-05 00:00:00	2017-11-20 00:00:00
10	M	2007-04-05 00:00:00	2017-11-20 00:00:00
11	F	2007-04-05 00:00:00	2017-11-20 00:00:00
12	F	2007-04-05 00:00:00	2017-11-20 00:00:00
13	M	2007-04-05 00:00:00	2017-11-20 00:00:00
14	F	1991-09-29 00:00:00	2017-11-24 07:42:48
15	F	1995-01-28 00:00:00	2017-11-24 08:01:39
16	F	1994-09-02 08:29:00	2017-11-24 08:29:45
17	M	2009-01-10 03:17:00	2017-11-25 03:18:18
18	F	2009-07-14 03:31:00	2017-11-25 03:31:40
19	F	2010-10-13 03:36:00	2017-11-25 03:36:56
20	M	2009-04-02 06:29:00	2017-11-25 06:29:48
